Univariate examples • predRecruit
…
summary, a dataframe containing the fold id id, metrics
of R-squared and RMSE (label in .metric, value in
.estimate, the permutation of covariate combinations
i, and type indicating whether the prediction
is made for the training or test set). These values are calculated on
each fold – so if 1-step ahead forecasts are used, R-squared will be
NA because each fold’s prediction will be correlated with 1
observation in the test set (and a correlation can’t be calculated for a
single pair of values)

lm_example$summary

## # A tibble: 560 × 7
##    id      .metric .estimator .estimate .config              type      i
##    <chr>   <chr>   <chr>          <dbl> <chr>                <chr> <int>
##  1 Slice01 rmse    standard       0.385 Preprocessor1_Model1 test      1
##  2 Slice01 rsq     standard      NA     Preprocessor1_Model1 test      1
##  3 Slice02 rmse    standard       0.363 Preprocessor1_Model1 test      1
##  4 Slice02 rsq     standard      NA     Preprocessor1_Model1 test      1
##  5 Slice03 rmse    standard       0.845 Preprocessor1_Model1 test      1
##  6 Slice03 rsq     standard      NA     Preprocessor1_Model1 test      1
##  7 Slice04 rmse    standard       0.978 Preprocessor1_Model1 test      1
##  8 Slice04 rsq     standard      NA     Preprocessor1_Model1 test      1
##  9 Slice05 rmse    standard       0.878 Preprocessor1_Model1 test      1
## 10 Slice05 rsq     standard      NA     Preprocessor1_Model1 test      1
## # ℹ 550 more rows
…
